…
    ## Using mirror http://aleph.gutenberg.org

``` r
wuthering_heights <- gutenberg_download(id[2,1])
```

### Tidy book text and remove stopwords

``` r
tidy_middlemarch <- middlemarch %>% 
  unnest_tokens(word, text)
tidy_middlemarch
```

    ## # A tibble: 320,374 x 2
    ##    gutenberg_id        word
    ##           <int>       <chr>
    ##  1          145 middlemarch
    ##  2          145          by
    ##  3          145      george
    ##  4          145       eliot
    ##  5          145         new
    ##  6          145        york
    ##  7          145         and
    ##  8          145      boston
    ##  9          145           h
    ## 10          145           m
    ## # ... with 320,364 more rows

``` r
tidy_wuthering <- wuthering_heights %>% 
  unnest_tokens(word, text)
tidy_wuthering
```

    ## # A tibble: 117,111 x 2
    ##    gutenberg_id      word
    ##           <int>     <chr>
    ##  1          768 wuthering
    ##  2          768   heights
    ##  3          768   chapter
    ##  4          768         i
    ##  5          768      1801
    ##  6          768         i
    ##  7          768      have
    ##  8          768      just
    ##  9          768  returned
    ## 10          768      from
    ## # ... with 117,101 more rows
…
